------------------------------------------------------------------------
r839456 | scripty | 2008-07-30 07:34:44 +0200 (Wed, 30 Jul 2008) | 1 line

SVN_SILENT made messages (.desktop file)
------------------------------------------------------------------------
r841307 | scripty | 2008-08-03 06:49:28 +0200 (Sun, 03 Aug 2008) | 1 line

SVN_SILENT made messages (.desktop file)
------------------------------------------------------------------------
r852449 | sitter | 2008-08-25 23:21:06 +0200 (Mon, 25 Aug 2008) | 3 lines

backport r852383
+ move kteatime application icon to application source, and install it into hicolor, since all application icons should go there and not oxygen

------------------------------------------------------------------------
